﻿Statement,Header,Field Name,Field Value
Statement,Data,BrokerName,Interactive Brokers
Statement,Data,BrokerAddress,
Statement,Data,Title,Activity Statement
Statement,Data,Period,"January 2, 2020 - December 18, 2020"
Statement,Data,WhenGenerated,"2020-12-20, 15:58:49 EST"
Account Information,Header,Field Name,Field Value
Account Information,Data,Name,Sergey V Bulavinov
Account Information,Data,Account,U3775832
Account Information,Data,Account Type,Individual
Account Information,Data,Customer Type,Individual
Account Information,Data,Account Capabilities,Margin
Account Information,Data,Base Currency,USD
Net Asset Value,Header,Asset Class,Prior Total,Current Long,Current Short,Current Total,Change
Net Asset Value,Data,Cash ,0,2495.58459775,0,2495.58459775,2495.58459775
Net Asset Value,Data,Cash Collateral,0,273,0,273,273
Net Asset Value,Data,Stock,0,8629.25,0,8629.25,8629.25
Net Asset Value,Data,Securities Lent,0,0,-273,-273,-273
Net Asset Value,Data,Dividend Accruals,0,19.34,0,19.34,19.34
Net Asset Value,Data,Total,0,11417.17459775,-273,11144.17459775,11144.17459775
Net Asset Value,Header,Time Weighted Rate of Return
Net Asset Value,Data,0.361004121%
Change in NAV,Header,Field Name,Field Value
Change in NAV,Data,Starting Value,0
Change in NAV,Data,Mark-to-Market,6.615
Change in NAV,Data,Deposits & Withdrawals,11120
Change in NAV,Data,Dividends,6.46
Change in NAV,Data,Withholding Tax,-0.97
Change in NAV,Data,Change in Dividend Accruals,19.34
Change in NAV,Data,Commissions,-7.27040225
Change in NAV,Data,Ending Value,11144.17459775
Mark-to-Market Performance Summary,Header,Asset Category,Symbol,Prior Quantity,Current Quantity,Prior Price,Current Price,Mark-to-Market P/L Position,Mark-to-Market P/L Transaction,Mark-to-Market P/L Commissions,Mark-to-Market P/L Other,Mark-to-Market P/L Total,Code
Mark-to-Market Performance Summary,Data,Stocks,BABA,0,2,--,260.0000,-1.65,2.4,-0.6977145,0,0.0522855,
Mark-to-Market Performance Summary,Data,Stocks,HDV,0,12,--,88.4400,-14.07,2.9,-0.6798145,5.49,-6.3598145,
Mark-to-Market Performance Summary,Data,Stocks,INTC,0,35,--,47.4600,16.89,-1.15,-1.68988625,0,14.05011375,
Mark-to-Market Performance Summary,Data,Stocks,LMT,0,2,--,356.0300,-10.64,3.08,-0.34825725,0,-7.90825725,
Mark-to-Market Performance Summary,Data,Stocks,MRK,0,7,--,79.5300,-13.44,1.82,-0.34815725,0,-11.96815725,
Mark-to-Market Performance Summary,Data,Stocks,O,0,15,--,59.5200,-8.19,-0.25,-1.07777175,0,-9.51777175,
Mark-to-Market Performance Summary,Data,Stocks,PFE,0,10,--,37.6800,-10.3,2.5,-0.36125725,0,-8.16125725,
Mark-to-Market Performance Summary,Data,Stocks,SPG,0,10,--,85.4300,5.5,-12.2,-0.6905145,0,-7.3905145,
Mark-to-Market Performance Summary,Data,Stocks,SPYD,0,30,--,32.6300,-2.3,2.515,-0.7065145,0,-0.4915145,
Mark-to-Market Performance Summary,Data,Stocks,T,0,20,--,29.4000,13,-1.4,-0.33025725,0,11.26974275,
Mark-to-Market Performance Summary,Data,Stocks,XOM,0,10,--,42.7300,46,-14.4,-0.34025725,0,31.25974275,
Mark-to-Market Performance Summary,Data,Total,,,,,,20.8,-14.185,-7.27040225,5.49,4.83459775,
Mark-to-Market Performance Summary,Data,Forex,USD,0,2495.58459775,1.0000,1.0000,0,0,0,0,0,
Mark-to-Market Performance Summary,Data,Total,,,,,,0,0,0,0,0,
Mark-to-Market Performance Summary,Data,Total (All Assets),,,,,,20.8,-14.185,-7.27040225,5.49,4.83459775,
Realized & Unrealized Performance Summary,Header,Asset Category,Symbol,Cost Adj.,Realized S/T Profit,Realized S/T Loss,Realized L/T Profit,Realized L/T Loss,Realized Total,Unrealized S/T Profit,Unrealized S/T Loss,Unrealized L/T Profit,Unrealized L/T Loss,Unrealized Total,Total,Code
Realized & Unrealized Performance Summary,Data,Stocks,BABA,0,0,0,0,0,0,6.900743,-6.848457,0,0,0.052286,0.052286,
Realized & Unrealized Performance Summary,Data,Stocks,HDV,0,0,0,0,0,0,2.209243,-14.059057,0,0,-11.849814,-11.849814,
Realized & Unrealized Performance Summary,Data,Stocks,INTC,0,0,0,0,0,0,17.862029,-3.811914,0,0,14.050115,14.050115,
Realized & Unrealized Performance Summary,Data,Stocks,LMT,0,0,0,0,0,0,0,-7.908257,0,0,-7.908257,-7.908257,
Realized & Unrealized Performance Summary,Data,Stocks,MRK,0,0,0,0,0,0,0,-11.968157,0,0,-11.968157,-11.968157,
Realized & Unrealized Performance Summary,Data,Stocks,O,0,0,0,0,0,0,0,-9.517771,0,0,-9.517771,-9.517771,
Realized & Unrealized Performance Summary,Data,Stocks,PFE,0,0,0,0,0,0,0,-8.161257,0,0,-8.161257,-8.161257,
Realized & Unrealized Performance Summary,Data,Stocks,SPG,0,0,0,0,0,0,1.804743,-9.195257,0,0,-7.390514,-7.390514,
Realized & Unrealized Performance Summary,Data,Stocks,SPYD,0,0,0,0,0,0,10.462743,-10.954257,0,0,-0.491514,-0.491514,
Realized & Unrealized Performance Summary,Data,Stocks,T,0,0,0,0,0,0,11.269743,0,0,0,11.269743,11.269743,
Realized & Unrealized Performance Summary,Data,Stocks,XOM,0,0,0,0,0,0,31.259743,0,0,0,31.259743,31.259743,
Realized & Unrealized Performance Summary,Data,Total,,0,0,0,0,0,0,81.768987,-82.424384,0,0,-0.655397,-0.655397,
Realized & Unrealized Performance Summary,Data,Total (All Assets),,0,0,0,0,0,0,81.768987,-82.424384,0,0,-0.655397,-0.655397,
Cash Report,Header,Currency Summary,Currency,Total,Securities,Futures,
Cash Report,Data,Starting Cash,Base Currency Summary,0,0,0,
Cash Report,Data,Commissions,Base Currency Summary,-7.27040225,-7.27040225,0,
Cash Report,Data,Deposits,Base Currency Summary,11120,11120,0,
Cash Report,Data,Dividends,Base Currency Summary,0.92,0.92,0,
Cash Report,Data,Net Trades (Purchase),Base Currency Summary,-8622.635,-8622.635,0,
Cash Report,Data,Payment In Lieu of Dividends,Base Currency Summary,5.54,5.54,0,
Cash Report,Data,Withholding Tax,Base Currency Summary,-0.97,-0.97,0,
Cash Report,Data,Ending Cash,Base Currency Summary,2495.58459775,2495.58459775,0,
Cash Report,Data,Ending Settled Cash,Base Currency Summary,4456.58459775,4456.58459775,0,
Cash Report,Data,Starting Cash Collateral,Base Currency Summary,0,0,0,
Cash Report,Data,Net Securities Lent Activity,Base Currency Summary,273,273,0,
Cash Report,Data,Ending Cash Collateral,Base Currency Summary,273,273,0,
Cash Report,Data,Net Cash Balance,Base Currency Summary,2768.58459775,2768.58459775,0,
Cash Report,Data,Net Settled Cash Balance,Base Currency Summary,4729.58459775,4729.58459775,0,
Open Positions,Header,DataDiscriminator,Asset Category,Currency,Symbol,Quantity,Mult,Cost Price,Cost Basis,Close Price,Value,Unrealized P/L,Code
Open Positions,Data,Summary,Stocks,USD,BABA,2,1,259.973857,519.947714,260,520,0.052286,
Open Positions,Data,Summary,Stocks,USD,HDV,12,1,89.4274845,1073.129814,88.44,1061.28,-11.849814,
Open Positions,Data,Summary,Stocks,USD,INTC,35,1,47.058568143,1647.049885,47.46,1661.1,14.050115,
Open Positions,Data,Summary,Stocks,USD,LMT,2,1,359.9841285,719.968257,356.03,712.06,-7.908257,
Open Positions,Data,Summary,Stocks,USD,MRK,7,1,81.239736714,568.678157,79.53,556.71,-11.968157,
Open Positions,Data,Summary,Stocks,USD,O,15,1,60.154518067,902.317771,59.52,892.8,-9.517771,
Open Positions,Data,Summary,Stocks,USD,PFE,10,1,38.4961257,384.961257,37.68,376.8,-8.161257,
Open Positions,Data,Summary,Stocks,USD,SPG,10,1,86.1690514,861.690514,85.43,854.3,-7.390514,
Open Positions,Data,Summary,Stocks,USD,SPYD,30,1,32.6463838,979.391514,32.63,978.9,-0.491514,
Open Positions,Data,Summary,Stocks,USD,T,20,1,28.83651285,576.730257,29.4,588,11.269743,
Open Positions,Data,Summary,Stocks,USD,XOM,10,1,39.6040257,396.040257,42.73,427.3,31.259743,
Open Positions,Total,,Stocks,USD,,,,,8629.905397,,8629.25,-0.655397,
Net Stock Position Summary,Header,Asset Category,Currency,Symbol,Description,Shares at IB,Shares Borrowed,Shares Lent,Net Shares
Net Stock Position Summary,Data,Stocks,USD,BABA,ALIBABA GROUP HOLDING-SP ADR,2,0,0,2
Net Stock Position Summary,Data,Stocks,USD,HDV,ISHARES CORE HIGH DIVIDEND E,12,0,-3,9
Net Stock Position Summary,Data,Stocks,USD,INTC,INTEL CORP,35,0,0,35
Net Stock Position Summary,Data,Stocks,USD,LMT,LOCKHEED MARTIN CORP,2,0,0,2
Net Stock Position Summary,Data,Stocks,USD,MRK,MERCK & CO INC,7,0,0,7
Net Stock Position Summary,Data,Stocks,USD,O,REALTY INCOME CORP,15,0,0,15
Net Stock Position Summary,Data,Stocks,USD,PFE,PFIZER INC,10,0,0,10
Net Stock Position Summary,Data,Stocks,USD,SPG,SIMON PROPERTY GROUP INC,10,0,0,10
Net Stock Position Summary,Data,Stocks,USD,SPYD,SPDR PORTFOLIO S&P 500 HIGH,30,0,0,30
Net Stock Position Summary,Data,Stocks,USD,T,AT&T INC,20,0,0,20
Net Stock Position Summary,Data,Stocks,USD,XOM,EXXON MOBIL CORP,10,0,0,10
Trades,Header,DataDiscriminator,Asset Category,Currency,Symbol,Date/Time,Quantity,T. Price,C. Price,Proceeds,Comm/Fee,Basis,Realized P/L,MTM P/L,Code
Trades,Data,Order,Stocks,USD,BABA,"2020-11-10, 15:05:00",1,266.5,266.54,-266.5,-0.34845725,266.84845725,0,0.04,O
Trades,Data,Order,Stocks,USD,BABA,"2020-12-15, 11:11:53",1,252.75,255.11,-252.75,-0.34925725,253.09925725,0,2.36,O
Trades,SubTotal,,Stocks,USD,BABA,,2,,,-519.25,-0.6977145,519.9477145,0,2.4,
Trades,Data,Order,Stocks,USD,HDV,"2020-12-08, 14:48:31",7,90.4,90.45,-632.8,-0.33905725,633.13905725,0,0.35,O
Trades,Data,Order,Stocks,USD,HDV,"2020-12-18, 15:25:48",5,87.93,88.44,-439.65,-0.34075725,439.99075725,0,2.55,O
Trades,SubTotal,,Stocks,USD,HDV,,12,,,-1072.45,-0.6798145,1073.1298145,0,2.9,
Trades,Data,Order,Stocks,USD,INTC,"2020-11-11, 15:02:16",10,46.38,46.35,-463.8,-0.33125725,464.13125725,0,-0.3,O
Trades,Data,Order,Stocks,USD,INTC,"2020-11-17, 09:53:11",3,45.47,45.53,-136.41,-0.34545725,136.75545725,0,0.18,O
Trades,Data,Order,Stocks,USD,INTC,"2020-12-18, 15:17:03",2,48.875,47.46,-97.75,-0.35065725,98.10065725,0,-2.83,O
Trades,Data,Order,Stocks,USD,INTC,"2020-12-18, 15:28:43",10,47.49,47.46,-474.9,-0.33125725,475.23125725,0,-0.3,O
Trades,Data,Order,Stocks,USD,INTC,"2020-12-18, 15:52:09",10,47.25,47.46,-472.5,-0.33125725,472.83125725,0,2.1,O
Trades,SubTotal,,Stocks,USD,INTC,,35,,,-1645.36,-1.68988625,1647.04988625,0,-1.15,
Trades,Data,Order,Stocks,USD,LMT,"2020-12-09, 15:15:52",2,359.81,361.35,-719.62,-0.34825725,719.96825725,0,3.08,O
Trades,SubTotal,,Stocks,USD,LMT,,2,,,-719.62,-0.34825725,719.96825725,0,3.08,
Trades,Data,Order,Stocks,USD,MRK,"2020-12-03, 12:01:51",7,81.19,81.45,-568.33,-0.34815725,568.67815725,0,1.82,O
Trades,SubTotal,,Stocks,USD,MRK,,7,,,-568.33,-0.34815725,568.67815725,0,1.82,
Trades,Data,Order,Stocks,USD,O,"2020-12-09, 10:44:44",7,60.72,60.69,-425.04,-0.37265725,425.41265725,0,-0.21,O
Trades,Data,Order,Stocks,USD,O,"2020-12-18, 15:35:47",3,59.45,59.52,-178.35,-0.35985725,178.70985725,0,0.21,O
Trades,Data,Order,Stocks,USD,O,"2020-12-18, 15:59:43",5,59.57,59.52,-297.85,-0.34525725,298.19525725,0,-0.25,O
Trades,SubTotal,,Stocks,USD,O,,15,,,-901.24,-1.07777175,902.31777175,0,-0.25,
Trades,Data,Order,Stocks,USD,PFE,"2020-12-15, 11:41:29",10,38.46,38.71,-384.6,-0.36125725,384.96125725,0,2.5,O
Trades,SubTotal,,Stocks,USD,PFE,,10,,,-384.6,-0.36125725,384.96125725,0,2.5,
Trades,Data,Order,Stocks,USD,SPG,"2020-11-25, 12:07:59",5,87.2,87.19,-436,-0.34525725,436.34525725,0,-0.05,O
Trades,Data,Order,Stocks,USD,SPG,"2020-11-30, 10:17:04",5,85,82.57,-425,-0.34525725,425.34525725,0,-12.15,O
Trades,SubTotal,,Stocks,USD,SPG,,10,,,-861,-0.6905145,861.6905145,0,-12.2,
Trades,Data,Order,Stocks,USD,SPYD,"2020-11-20, 10:46:37",10,31.5485,31.72,-315.485,-0.35225725,315.83725725,0,1.715,O
Trades,Data,Order,Stocks,USD,SPYD,"2020-11-25, 12:24:53",20,33.16,33.2,-663.2,-0.35425725,663.55425725,0,0.8,O
Trades,SubTotal,,Stocks,USD,SPYD,,30,,,-978.685,-0.7065145,979.3915145,0,2.515,
Trades,Data,Order,Stocks,USD,T,"2020-11-30, 13:32:25",20,28.82,28.75,-576.4,-0.33025725,576.73025725,0,-1.4,O
Trades,SubTotal,,Stocks,USD,T,,20,,,-576.4,-0.33025725,576.73025725,0,-1.4,
Trades,Data,Order,Stocks,USD,XOM,"2020-11-30, 09:33:24",10,39.57,38.13,-395.7,-0.34025725,396.04025725,0,-14.4,O
Trades,SubTotal,,Stocks,USD,XOM,,10,,,-395.7,-0.34025725,396.04025725,0,-14.4,
Trades,Total,,Stocks,USD,,,,,,-8622.635,-7.27040225,8629.90540225,0,-14.185, 
Deposits & Withdrawals,Header,Currency,Settle Date,Description,Amount
Deposits & Withdrawals,Data,USD,2020-11-05,Electronic Fund Transfer,5970
Deposits & Withdrawals,Data,USD,2020-12-02,Electronic Fund Transfer,5150
Deposits & Withdrawals,Data,Total,,,11120
Fees,Header,Subtitle,Currency,Date,Description,Amount
Fees,Data,Other Fees,USD,2020-12-03,B*****86:US CONSOLIDATED SNAPSHOT FOR NOV 2020,-0.04
Fees,Data,Other Fees,USD,2020-12-03,B*****86:US CONSOLIDATED SNAPSHOT FOR NOV 2020,0.04
Fees,Data,Total,,,,0
Fees,Notes,"Market data is provided by Global Financial Information Services (GmbH). Your local broker collects amounts owed for fees and tax for such data on behalf of Global Financial Information Services (GmbH). Note, you are responsible for any applicable taxes relating to the provision of these services."
Dividends,Header,Currency,Date,Description,Amount
Dividends,Data,USD,2020-12-18,HDV(US46429B6636) Payment in Lieu of Dividend (Ordinary Dividend),5.54
Dividends,Data,USD,2020-12-18,HDV(US46429B6636) Cash Dividend USD 0.923235 per Share (Ordinary Dividend),0.92
Dividends,Data,Total,,,6.46
Withholding Tax,Header,Currency,Date,Description,Amount,Code
Withholding Tax,Data,USD,2020-12-18,HDV(US46429B6636) Payment in Lieu of Dividend - US Tax,-0.83,
Withholding Tax,Data,USD,2020-12-18,HDV(US46429B6636) Cash Dividend USD 0.923235 per Share - US Tax,-0.14,
Withholding Tax,Data,Total,,,-0.97,
Change in Dividend Accruals,Header,Asset Category,Currency,Symbol,Date,Ex Date,Pay Date,Quantity,Tax,Fee,Gross Rate,Gross Amount,Net Amount,Code
Change in Dividend Accruals,Data,Starting Dividend Accruals in USD,,,,,,,,,,,0,
Change in Dividend Accruals,Data,Stocks,USD,HDV,2020-12-11,2020-12-14,2020-12-18,7,0.97,0,0.923235,6.46,5.49,Po
Change in Dividend Accruals,Data,Stocks,USD,HDV,2020-12-18,2020-12-14,2020-12-18,7,-0.97,0,0.923235,-6.46,-5.49,Re
Change in Dividend Accruals,Data,Stocks,USD,MRK,2020-12-11,2020-12-14,2021-01-08,7,0.68,0,0.65,4.55,3.87,Po
Change in Dividend Accruals,Data,Stocks,USD,SPYD,2020-12-17,2020-12-18,2020-12-23,30,2.73,0,0.606617,18.2,15.47,Po
Change in Dividend Accruals,Data,Total,,,,,,,3.41,0,,22.75,19.34,
Change in Dividend Accruals,Data,Ending Dividend Accruals in USD,,,,,,,,,,,19.34,
IBKR Managed Securities Lent (Stock Yield Enhancement Program),Header,Asset Category,Currency,Symbol,Transaction ID,Quantity,Interest Rate on Customer Collateral (%),Collateral Amount
IBKR Managed Securities Lent (Stock Yield Enhancement Program),Data,Stocks,USD,HDV,SLB.58240579,-3,0.26,273
IBKR Managed Securities Lent (Stock Yield Enhancement Program),Data,Total,,,,,,273
IBKR Managed Securities Lent Activity (Stock Yield Enhancement Program),Header,Asset Category,Currency,Symbol,Date,Description, ,Transaction ID,Quantity,Collateral Amount
IBKR Managed Securities Lent Activity (Stock Yield Enhancement Program),Data,Stocks,USD,HDV,2020-12-11,New Loan Allocation, ,SLB.58143622,-6,558
IBKR Managed Securities Lent Activity (Stock Yield Enhancement Program),Data,Stocks,USD,HDV,2020-12-14,Loan Return Allocation, ,SLB.58143622,6,-558
IBKR Managed Securities Lent Activity (Stock Yield Enhancement Program),Data,Stocks,USD,HDV,2020-12-14,New Loan Allocation, ,SLB.58143622,-6,558
IBKR Managed Securities Lent Activity (Stock Yield Enhancement Program),Data,Stocks,USD,HDV,2020-12-15,Loan Return Allocation, ,SLB.58143622,6,-558
IBKR Managed Securities Lent Activity (Stock Yield Enhancement Program),Data,Stocks,USD,HDV,2020-12-15,New Loan Allocation, ,SLB.58143622,-6,540
IBKR Managed Securities Lent Activity (Stock Yield Enhancement Program),Data,Stocks,USD,HDV,2020-12-16,Loan Return Allocation, ,SLB.58143622,6,-540
IBKR Managed Securities Lent Activity (Stock Yield Enhancement Program),Data,Stocks,USD,HDV,2020-12-18,New Loan Allocation, ,SLB.58240579,-3,273
IBKR Managed Securities Lent Activity (Stock Yield Enhancement Program),Data,Total,,,,,,,,,273
IBKR Managed Securities Lent Activity (Stock Yield Enhancement Program),Notes,"Important Notice re: SIPC Protection for Loans of Fully Paid and Excess Margin Securities:  Please be aware that if you execute loans of your fully paid or excess margin securities, the  provisions of the Securities Investor Protection Act of 1970 may not protect you with respect to the securities loan transaction.  Therefore, the cash collateral credited to your account by Interactive Brokers (see above) may constitute the only source of satisfaction in the event that Interactive Brokers cannot return the securities."
Financial Instrument Information,Header,Asset Category,Symbol,Description,Conid,Security ID,Listing Exch,Multiplier,Type,Code
Financial Instrument Information,Data,Stocks,BABA,ALIBABA GROUP HOLDING-SP ADR,166090175,US01609W1027,NYSE,1,ADR,
Financial Instrument Information,Data,Stocks,HDV,ISHARES CORE HIGH DIVIDEND E,86326985,US46429B6636,ARCA,1,ETF,
Financial Instrument Information,Data,Stocks,INTC,INTEL CORP,270639,US4581401001,NASDAQ,1,COMMON,
Financial Instrument Information,Data,Stocks,LMT,LOCKHEED MARTIN CORP,611191,US5398301094,NYSE,1,COMMON,
Financial Instrument Information,Data,Stocks,MRK,MERCK & CO INC,70101545,US58933Y1055,NYSE,1,COMMON,
Financial Instrument Information,Data,Stocks,O,REALTY INCOME CORP,10672,US7561091049,NYSE,1,REIT,
Financial Instrument Information,Data,Stocks,PFE,PFIZER INC,11031,US7170811035,NYSE,1,COMMON,
Financial Instrument Information,Data,Stocks,SPG,SIMON PROPERTY GROUP INC,2009113,US8288061091,NYSE,1,REIT,
Financial Instrument Information,Data,Stocks,SPYD,SPDR PORTFOLIO S&P 500 HIGH,210534655,US78468R7888,ARCA,1,ETF,
Financial Instrument Information,Data,Stocks,T,AT&T INC,37018770,US00206R1023,NYSE,1,COMMON,
Financial Instrument Information,Data,Stocks,XOM,EXXON MOBIL CORP,13977,US30231G1022,NYSE,1,COMMON,
Codes,Header,Code,Meaning,Code (Cont.),Meaning (Cont.)
Codes,Data,A,Assignment
Codes,Data,ADR,ADR Fee Accrual
Codes,Data,AEx,Automatic exercise for dividend-related recommendation.
Codes,Data,Adj,Adjustment
Codes,Data,Al,Allocation
Codes,Data,Aw,Away Trade
Codes,Data,B,Automatic Buy-in
Codes,Data,Bo,Direct Borrow
Codes,Data,C,Closing Trade
Codes,Data,CD,Cash Delivery
Codes,Data,CP,Complex Position
Codes,Data,Ca,Cancelled
Codes,Data,Co,Corrected Trade
Codes,Data,Cx,Part or all of this transaction was a Crossing executed as dual agent by IB for two IB customers
Codes,Data,ETF,ETF Creation/Redemption
Codes,Data,Ep,Resulted from an Expired Position
Codes,Data,Ex,Exercise
Codes,Data,FP,IB acted as principal for the fractional share portion of this trade
Codes,Data,FPA,IB acted as principal for the fractional share portion and as agent for the whole share portion of this trade
Codes,Data,G,Trade in Guaranteed Account Segment
Codes,Data,HC,Highest Cost tax basis election
Codes,Data,HFI,Investment Transferred to Hedge Fund
Codes,Data,HFR,Redemption from Hedge Fund
Codes,Data,I,Internal Transfer
Codes,Data,IA,This transaction was executed against an IB affiliate
Codes,Data,INV,Investment Transfer from Investor
Codes,Data,IPO,This transaction was executed as part of an IPO in which IB was a member of the selling group and is classified as a Principal trade.
Codes,Data,L,Ordered by IB (Margin Violation)
Codes,Data,LD,Adjusted by Loss Disallowed from Wash Sale
Codes,Data,LI,"Last In, First Out (LIFO) tax basis election"
Codes,Data,LT,Long Term P/L
Codes,Data,Lo,Direct Loan
Codes,Data,M,Entered manually by IB
Codes,Data,MEx,Manual exercise for dividend-related recommendation.
Codes,Data,ML,Maximize Losses tax basis election
Codes,Data,MLG,Maximize Long Term Gain tax basis election
Codes,Data,MLL,Maximize Long Term Loss tax basis election
Codes,Data,MSG,Maximize Short Term Gain tax basis election
Codes,Data,MSL,Maximize Short Term Loss tax basis election
Codes,Data,O,Opening Trade
Codes,Data,P,Partial Execution
Codes,Data,PI,Price Improvement
Codes,Data,Po,Interest or Dividend Accrual Posting
Codes,Data,Pr,Part or all of this transaction was executed by the Exchange as a Crossing by IB against an IB affiliate and is therefore classified as a Principal and not an agency trade
Codes,Data,R,Dividend Reinvestment
Codes,Data,RED,Redemption to Investor
Codes,Data,RP,IB acted as riskless principal for the fractional share portion of this trade
Codes,Data,RPA,IB acted as riskless principal for the fractional share portion and as agent for the whole share portion of this trade
Codes,Data,Re,Interest or Dividend Accrual Reversal
Codes,Data,Ri,Reimbursement
Codes,Data,SI,This order was solicited by Interactive Brokers
Codes,Data,SL,Specific Lot tax basis election
Codes,Data,SO,This order was marked as solicited by your Introducing Broker
Codes,Data,SS,Customer designated this trade for shortened settlement and so is subject to execution at prices above the prevailing market
Codes,Data,ST,Short Term P/L
Codes,Data,T,Transfer
Codes,Data,Un,Unvested shares from stock grant
Notes/Legal Notes,Header,Type,Note
Notes/Legal Notes,Data,Notes,"Most stock exchange transactions settle on the trade date plus two business days. Options, futures and US open-end mutual fund transactions settle on trade date plus one business day. (Some exchanges and other transaction types may have longer or shorter settlement periods.) Ending settled cash reflects the cash that has actually settled.  "
Notes/Legal Notes,Data,Notes,Initial and maintenance margin requirements are available within the Account Window of the Trader Workstation.
Notes/Legal Notes,Data,Notes,"Interactive Brokers LLC receives compensation from fund companies in connection with the purchase and holding of fund shares by customers of Interactive Brokers LLC. Such compensation includes, but is not limited to, Rule 12b-1 fees that are paid out of the funds assets. The source and amount of any remuneration received by Interactive Brokers LLC in connection with a transaction will be furnished upon written request of the customer.  IB may share a portion of the compensation received from fund companies with your financial advisor or introducing broker."
Notes/Legal Notes,Data,Notes,Quantities preceded by a "-" sign indicate sell transactions. Other transactions are purchases. 
Notes/Legal Notes,Data,Notes,"If IB acts as principal in executing any fractional share portion of your order, the order will be executed at the price displayed for the opposite side of the NBBO from your order (the offer if you are buying and the bid if you are selling) at the time of execution. If IB is acting as riskless principal in connection with filling the fractional share portion of your order, IB will execute the fractional share portion of your order at the price it receives for the execution of the whole share."
Notes/Legal Notes,Data,Notes,"In case of partial executions, commissions are charged on the total quantity executed on the original order. The commission is displayed on the first partial execution only."
Notes/Legal Notes,Data,Notes,Each closed lot indicated above with a reference to note (6) was chosen by the end of the trading day to be sold versus the specific opening purchase identified in that row.
Notes/Legal Notes,Data,Notes,Trade execution times are displayed in Eastern Time.
Notes/Legal Notes,Data,Notes,Applicable commodity Regulatory Fees for your transactions are available on the IB website at www.interactivebrokers.com/en/accounts/fees/exchangeAndRegulatoryFees.php.
Notes/Legal Notes,Data,Notes,"Borrow Fee Rate represents the cost to borrow stock expressed in percent per annum. It is applied to the cash collateral amount on the stock borrow contract and is separate from any interest earned on credit cash balances. Similarly, Loan Fee Rate represents the benefit to lend stock. A positive rate indicates a cost to the borrower/benefit to the lender and a negative rate indicates a benefit to the borrower/cost to the lender. In general, the fee rates for hard-to-borrow stocks are higher than for normal availability stocks."
Notes/Legal Notes,Data,Notes,Interest Rate on Customer Collateral represents the interest paid on the collateral posted to the customer's account and received from lending stock.  A positive rate indicates a benefit to the lender.
Notes/Legal Notes,Data,Notes,"The closing prices on this Activity Statement are indicative and may come from third-party sources. Interactive Brokers does not warrant the accuracy of the prices provided by third-party sources. Due to time zone differences, certain non-US mutual funds may deliver closing prices after the Activity Statement has been produced and the closing prices for such funds will reflect the previous day's price."
Notes/Legal Notes,Data,Notes,All Market Data and Research services are provided through Global Financial Information Services (GmbH).
Notes/Legal Notes,Data,Notes,"Market data is provided by Global Financial Information Services (GmbH). Your local broker collects amounts owed for fees and tax for such data on behalf of Global Financial Information Services (GmbH). Note, you are responsible for any applicable taxes relating to the provision of these services."
Notes/Legal Notes,Data,Fixed Income Notes,"Call features for bonds or preferred stocks may affect the yield. For zero coupon, compound interest and multiplier securities, there are no periodic payments and securities may be callable below maturity value without notice to holder unless registered. For asset-backed securities, the actual yield may vary depending on the speed at which the underlying note is pre-paid. For additional information regarding bond yield, please contact the IB Help Desk at: help@interactivebrokers.com. If this debt security is unrated by a nationally recognized statistical rating organization, it may pose a high risk of default. You should consult a financial advisor to determine whether unrated bonds are appropriate for your portfolio in light of your goals and your financial circumstances. Fees charged by bond trading centers are included in the cost of bond transactions."
Notes/Legal Notes,Data,Legal Notes,"Please promptly report any inaccuracy or discrepancy in this statement, or in your account. Contact the IB Customer Service Department in writing using the form available on the IB website. You may also contact IB by phone, but if you report an error by phone, you should re-confirm such oral communication in writing in order to protect your rights, including rights under the Securities Investor Protection Act (SIPA).Interactive Brokers LLC, www.interactivebrokers.com, 877-442-2757 (U.S.)Interactive Brokers (UK) (Ltd), www.interactivebrokers.co.uk, 00800-42-276537 (Intl)Interactive Brokers Canada Inc., www.interactivebrokers.ca, 877-745-4222 (Can.)"
Notes/Legal Notes,Data,Legal Notes,"Unless otherwise noted, Interactive Brokers acted as agent in the execution of the above transactions. For those exchanges where IB is not a direct clearing member or custodian, IB may use one of the following clearing agents or sub-custodians: Interactive Brokers Australia Pty Limited; Interactive Brokers Canada Inc.; Interactive Brokers Hong Kong Limited; Interactive Brokers Securities Japan, Inc.; Interactive Brokers (U.K.) Limited; IBKR Financial Services AG; ABN Amro Clearing Singapore Pte. Ltd.; BBVA Bancomer, S.A.; BNP Securities Services, Milan Branch; BMO Harris Bank N.A.; Citibank Europe plc; Euroclear Bank S.A./N.V.; Skandinaviska Enskilda Banken AB (including select branches)."
Notes/Legal Notes,Data,Legal Notes,"IB acts as agent or riskless principal in foreign currency exchange transactions.  Such transactions are executed against an IB affiliate or a third party, which acts as principal in such transactions and may have a long or short position and may have profited or lost in connection with the transaction.  Foreign currency exchange transactions executed by Customer through IB are not regulated or overseen by the SEC or the CFTC."
Notes/Legal Notes,Data,Legal Notes,"Trades marked with the exchange indicator of TMBR were effected by IB as agent through a market making affiliate, which acted as principal in the transaction and may have a long or short position in the security and may have profited or lost in connection with the transaction."
Notes/Legal Notes,Data,Legal Notes,"All VWAP trades are effected pursuant to an average price formula based on a reference price provided by a third-party data provider. Additional information and reference prices are available upon request. IB, as agent, effects VWAP transactions through a market making affiliate, which acts as principal in such transactions and may have a long or short position in the security and may have profited or lost in connection with the transaction."
Notes/Legal Notes,Data,Legal Notes,"IB accepts liquidity rebates or other order flow payments from Alternative Trading Systems, market makers and exchanges for certain orders in stocks. IB receives payment for some option orders pursuant to exchange-mandated marketing fee programs or other arrangements. The source and nature of any compensation received by IB in connection with any transaction is available upon written request of the customer. For further information, check the IB website and the Order Routing and Payment for Order Flow Disclosure provided when you opened your account and annually or email help@interactivebrokers.com.  "
Notes/Legal Notes,Data,Legal Notes,"For security futures trades, if not already indicated on this statement, information about the time of any transaction, the identity of the counterparty to the transaction, and whether IB is acting as agent or principal, as agent for the counterparty, as agent for both parties to the contract, or as principal, and if acting as principal, whether the transaction was a block transaction or an exchange for physicals transaction, will be available upon written request of the customer."
Notes/Legal Notes,Data,Legal Notes,Customer is requested to promptly advise Interactive Brokers of any material change in Customer's investment objectives or financial situation.
Notes/Legal Notes,Data,Legal Notes,"A financial statement of Interactive Brokers LLC is available for your personal inspection at www.interactivebrokers.com or at its offices, or a copy of it will be mailed upon your written request."
Notes/Legal Notes,Data,Legal Notes,"For trades executed on either the Australian Stock Exchange Ltd (""ASX"") or Chi-X Australia Pty Ltd (""Chi-X""), this confirmation is issued subject to: (i) the directions, decisions and requirements of the Market Operator, the relevant Market Integrity Rules, the relevant Market Operating Rules, the Clearing Rules and where relevant, the Settlement Rules; (ii) the customs and usages of the relevant Market; and (iii) the correction of errors and omissions. Interactive Brokers LLC (ARBN: 091191141, AFSL: 245574, Participant on Chi-X Australia)(""IB"") is not a participant on the ASX, and will route orders to the ASX through its affiliate, Timber Hill Australia Pty Ltd (ABN 25079993534, AFSL: 244380, Participant on the ASX)(""THA"") who executes such orders. Your ASX and Chi-x Australia trades will be cleared through ABN Amro Clearing Sydney Pty Ltd, an ACH participant. If your transaction was a crossing transaction, IB may have either acted on behalf of (i) both the buyer and seller of this transaction, or (ii) on behalf of the buyer or seller on one side of the transaction and act as Principal on the other side. Under the Corporations Act 2001, where IB enters into an exchange traded derivatives on a customer's behalf, IB is regarded as having issued the derivative to the customer."
Notes/Legal Notes,Data,Legal Notes,"For All Options Trades Executed on the Stock Exchange of Hong Kong (""SEHK""): (a) Options can involve a high degree of risk and may not be suitable for every investor. Investors should ensure they understand those risks before participating in the options market. (b) All options contracts executed on the SEHK were executed by Timber Hill Securities Hong Kong on behalf of Interactive Brokers LLC. (c) In the event of a default committed by Interactive Brokers LLC resulting in the client suffering any pecuniary loss, the client shall have a right to claim under the Investor Compensation Fund established under the Hong Kong Securities and Futures Ordinance, subject to the terms of the Investor Compensation Fund from time to time. (d) All Exchange Traded Options Business made for or on behalf of a client shall be subject to the relevant provisions of the constitution, Rules of The Stock Exchange of Hong Kong Limited (""SEHK Rules""), regulations, the Articles, customs and usages of SEHK, the Options Trading Rules, the Clearing Rules of SEOCH, the CCASS Rules and the laws of Hong Kong, which shall be binding on both Interactive Brokers LLC and the client."
Notes/Legal Notes,Data,Legal Notes,"Deposits held away from Interactive Brokers LLC may not qualify under SIPC protection.  Also, futures and options on futures are not covered by SIPC."
Notes/Legal Notes,Data,,SIPC Member
